{
  "href": "https://api.spotify.com/v1/albums/7xl50xr9NDkd3i2kBbzsNZ/tracks?offset=0&limit=2&locale=en-US,en;q=0.9,la;q=0.8",
  "items": [
    {
      "artists": [
        {
          "external_urls": {
            "spotify": "https://open.spotify.com/artist/0L8ExT028jH3ddEcZwqJJ5"
          },
          "href": "https://api.spotify.com/v1/artists/0L8ExT028jH3ddEcZwqJJ5",
          "id": "0L8ExT028jH3ddEcZwqJJ5",
          "name": "Red Hot Chili Peppers",
          "type": "artist",
          "uri": "spotify:artist:0L8ExT028jH3ddEcZwqJJ5"
        }
      ],
      "available_markets": [
        "AD",
        "AE",
        "AG",
        "AL",
        "AM",
        "AO",
        "AR",
        "AT",
        "AU",
        "AZ",
        "BA",
        "BB",
        "BD",
        "BE",
        "BF",
        "BG",
        "BH",
        "BI",
        "BJ",
        "BN",
        "BO",
        "BR",
        "BS",
        "BT",
        "BW",
        "BY",
        "BZ",
        "CA",
        "CD",
        "CG",
        "CH",
        "CI",
        "CL",
        "CM",
        "CO",
        "CR",
        "CV",
        "CW",
        "CY",
        "CZ",
        "DE",
        "DJ",
        "DK",
        "DM",
        "DO",
        "DZ",
        "EC",
        "EE",
        "EG",
        "ES",
        "FI",
        "FJ",
        "FM",
        "FR",
        "GA",
        "GB",
        "GD",
        "GE",
        "GH",
        "GM",
        "GN",
        "GQ",
        "GR",
        "GT",
        "GW",
        "GY",
        "HK",
        "HN",
        "HR",
        "HT",
        "HU",
        "ID",
        "IE",
        "IL",
        "IN",
        "IQ",
        "IS",
        "IT",
        "JM",
        "JO",
        "JP",
        "KE",
        "KG",
        "KH",
        "KI",
        "KM",
        "KN",
        "KR",
        "KW",
        "KZ",
        "LA",
        "LB",
        "LC",
        "LI",
        "LK",
        "LR",
        "LS",
        "LT",
        "LU",
        "LV",
        "LY",
        "MA",
        "MC",
        "MD",
        "ME",
        "MG",
        "MH",
        "MK",
        "ML",
        "MN",
        "MO",
        "MR",
        "MT",
        "MU",
        "MV",
        "MW",
        "MX",
        "MY",
        "MZ",
        "NA",
        "NE",
        "NG",
        "NI",
        "NL",
        "NO",
        "NP",
        "NR",
        "NZ",
        "OM",
        "PA",
        "PE",
        "PG",
        "PH",
        "PK",
        "PL",
        "PS",
        "PT",
        "PW",
        "PY",
        "QA",
        "RO",
        "RS",
        "RU",
        "RW",
        "SA",
        "SB",
        "SC",
        "SE",
        "SG",
        "SI",
        "SK",
        "SL",
        "SM",
        "SN",
        "SR",
        "ST",
        "SV",
        "SZ",
        "TD",
        "TG",
        "TH",
        "TJ",
        "TL",
        "TN",
        "TO",
        "TR",
        "TT",
        "TV",
        "TW",
        "TZ",
        "UA",
        "UG",
        "US",
        "UY",
        "UZ",
        "VC",
        "VE",
        "VN",
        "VU",
        "WS",
        "XK",
        "ZA",
        "ZM",
        "ZW"
      ],
      "disc_number": 1,
      "duration_ms": 282160,
      "explicit": false,
      "external_urls": {
        "spotify": "https://open.spotify.com/track/10Nmj3JCNoMeBQ87uw5j8k"
      },
      "href": "https://api.spotify.com/v1/tracks/10Nmj3JCNoMeBQ87uw5j8k",
      "id": "10Nmj3JCNoMeBQ87uw5j8k",
      "is_local": false,
      "name": "Dani California",
      "preview_url": "https://p.scdn.co/mp3-preview/87d4f1047475a73d44731914bca0b883cc1d5876?cid=774b29d4f13844c495f206cafdad9c86",
      "track_number": 1,
      "type": "track",
      "uri": "spotify:track:10Nmj3JCNoMeBQ87uw5j8k"
    },
    {
      "artists": [
        {
          "external_urls": {
            "spotify": "https://open.spotify.com/artist/0L8ExT028jH3ddEcZwqJJ5"
          },
          "href": "https://api.spotify.com/v1/artists/0L8ExT028jH3ddEcZwqJJ5",
          "id": "0L8ExT028jH3ddEcZwqJJ5",
          "name": "Red Hot Chili Peppers",
          "type": "artist",
          "uri": "spotify:artist:0L8ExT028jH3ddEcZwqJJ5"
        }
      ],
      "available_markets": [
        "AD",
        "AE",
        "AG",
        "AL",
        "AM",
        "AO",
        "AR",
        "AT",
        "AU",
        "AZ",
        "BA",
        "BB",
        "BD",
        "BE",
        "BF",
        "BG",
        "BH",
        "BI",
        "BJ",
        "BN",
        "BO",
        "BR",
        "BS",
        "BT",
        "BW",
        "BY",
        "BZ",
        "CA",
        "CD",
        "CG",
        "CH",
        "CI",
        "CL",
        "CM",
        "CO",
        "CR",
        "CV",
        "CW",
        "CY",
        "CZ",
        "DE",
        "DJ",
        "DK",
        "DM",
        "DO",
        "DZ",
        "EC",
        "EE",
        "EG",
        "ES",
        "FI",
        "FJ",
        "FM",
        "FR",
        "GA",
        "GB",
        "GD",
        "GE",
        "GH",
        "GM",
        "GN",
        "GQ",
        "GR",
        "GT",
        "GW",
        "GY",
        "HK",
        "HN",
        "HR",
        "HT",
        "HU",
        "ID",
        "IE",
        "IL",
        "IN",
        "IQ",
        "IS",
        "IT",
        "JM",
        "JO",
        "JP",
        "KE",
        "KG",
        "KH",
        "KI",
        "KM",
        "KN",
        "KR",
        "KW",
        "KZ",
        "LA",
        "LB",
        "LC",
        "LI",
        "LK",
        "LR",
        "LS",
        "LT",
        "LU",
        "LV",
        "LY",
        "MA",
        "MC",
        "MD",
        "ME",
        "MG",
        "MH",
        "MK",
        "ML",
        "MN",
        "MO",
        "MR",
        "MT",
        "MU",
        "MV",
        "MW",
        "MX",
        "MY",
        "MZ",
        "NA",
        "NE",
        "NG",
        "NI",
        "NL",
        "NO",
        "NP",
        "NR",
        "NZ",
        "OM",
        "PA",
        "PE",
        "PG",
        "PH",
        "PK",
        "PL",
        "PS",
        "PT",
        "PW",
        "PY",
        "QA",
        "RO",
        "RS",
        "RU",
        "RW",
        "SA",
        "SB",
        "SC",
        "SE",
        "SG",
        "SI",
        "SK",
        "SL",
        "SM",
        "SN",
        "SR",
        "ST",
        "SV",
        "SZ",
        "TD",
        "TG",
        "TH",
        "TJ",
        "TL",
        "TN",
        "TO",
        "TR",
        "TT",
        "TV",
        "TW",
        "TZ",
        "UA",
        "UG",
        "US",
        "UY",
        "UZ",
        "VC",
        "VE",
        "VN",
        "VU",
        "WS",
        "XK",
        "ZA",
        "ZM",
        "ZW"
      ],
      "disc_number": 1,
      "duration_ms": 334666,
      "explicit": false,
      "external_urls": {
        "spotify": "https://open.spotify.com/track/2aibwv5hGXSgw7Yru8IYTO"
      },
      "href": "https://api.spotify.com/v1/tracks/2aibwv5hGXSgw7Yru8IYTO",
      "id": "2aibwv5hGXSgw7Yru8IYTO",
      "is_local": false,
      "name": "Snow (Hey Oh)",
      "preview_url": "https://p.scdn.co/mp3-preview/bc8d37532bace773a946ed1ab59f4181e632d93a?cid=774b29d4f13844c495f206cafdad9c86",
      "track_number": 2,
      "type": "track",
      "uri": "spotify:track:2aibwv5hGXSgw7Yru8IYTO"
    }
  ],
  "limit": 2,
  "next": "https://api.spotify.com/v1/albums/7xl50xr9NDkd3i2kBbzsNZ/tracks?offset=2&limit=2&locale=en-US,en;q=0.9,la;q=0.8",
  "offset": 0,
  "previous": null,
  "total": 29
}
