{
  "href": "https://api.spotify.com/v1/playlists/0FzPhBWC2VvP9jl8GnJTEY/tracks?offset=0&limit=3&locale=en-US,en;q=0.9,la;q=0.8",
  "items": [
    {
      "added_at": "2018-10-06T13:42:12Z",
      "added_by": {
        "external_urls": {
          "spotify": "https://open.spotify.com/user/12174432317"
        },
        "href": "https://api.spotify.com/v1/users/12174432317",
        "id": "12174432317",
        "type": "user",
        "uri": "spotify:user:12174432317"
      },
      "is_local": false,
      "primary_color": null,
      "track": {
        "album": {
          "album_type": "album",
          "artists": [
            {
              "external_urls": {
                "spotify": "https://open.spotify.com/artist/0L8ExT028jH3ddEcZwqJJ5"
              },
              "href": "https://api.spotify.com/v1/artists/0L8ExT028jH3ddEcZwqJJ5",
              "id": "0L8ExT028jH3ddEcZwqJJ5",
              "name": "Red Hot Chili Peppers",
              "type": "artist",
              "uri": "spotify:artist:0L8ExT028jH3ddEcZwqJJ5"
            }
          ],
          "available_markets": [
            "AD",
            "AE",
            "AG",
            "AL",
            "AM",
            "AO",
            "AR",
            "AT",
            "AU",
            "AZ",
            "BA",
            "BB",
            "BD",
            "BE",
            "BF",
            "BG",
            "BH",
            "BI",
            "BJ",
            "BN",
            "BO",
            "BR",
            "BS",
            "BT",
            "BW",
            "BY",
            "BZ",
            "CA",
            "CD",
            "CG",
            "CH",
            "CI",
            "CL",
            "CM",
            "CO",
            "CR",
            "CV",
            "CW",
            "CY",
            "CZ",
            "DE",
            "DJ",
            "DK",
            "DM",
            "DO",
            "DZ",
            "EC",
            "EE",
            "EG",
            "ES",
            "FI",
            "FJ",
            "FM",
            "FR",
            "GA",
            "GB",
            "GD",
            "GE",
            "GH",
            "GM",
            "GN",
            "GQ",
            "GR",
            "GT",
            "GW",
            "GY",
            "HK",
            "HN",
            "HR",
            "HT",
            "HU",
            "ID",
            "IE",
            "IL",
            "IN",
            "IQ",
            "IS",
            "IT",
            "JM",
            "JO",
            "JP",
            "KE",
            "KG",
            "KH",
            "KI",
            "KM",
            "KN",
            "KR",
            "KW",
            "KZ",
            "LA",
            "LB",
            "LC",
            "LI",
            "LK",
            "LR",
            "LS",
            "LT",
            "LU",
            "LV",
            "LY",
            "MA",
            "MC",
            "MD",
            "ME",
            "MG",
            "MH",
            "MK",
            "ML",
            "MN",
            "MO",
            "MR",
            "MT",
            "MU",
            "MV",
            "MW",
            "MX",
            "MY",
            "MZ",
            "NA",
            "NE",
            "NG",
            "NI",
            "NL",
            "NO",
            "NP",
            "NR",
            "NZ",
            "OM",
            "PA",
            "PE",
            "PG",
            "PH",
            "PK",
            "PL",
            "PS",
            "PT",
            "PW",
            "PY",
            "QA",
            "RO",
            "RS",
            "RU",
            "RW",
            "SA",
            "SB",
            "SC",
            "SE",
            "SG",
            "SI",
            "SK",
            "SL",
            "SM",
            "SN",
            "SR",
            "ST",
            "SV",
            "SZ",
            "TD",
            "TG",
            "TH",
            "TJ",
            "TL",
            "TN",
            "TO",
            "TR",
            "TT",
            "TV",
            "TW",
            "TZ",
            "UA",
            "UG",
            "US",
            "UY",
            "UZ",
            "VC",
            "VE",
            "VN",
            "VU",
            "WS",
            "XK",
            "ZA",
            "ZM",
            "ZW"
          ],
          "external_urls": {
            "spotify": "https://open.spotify.com/album/7xl50xr9NDkd3i2kBbzsNZ"
          },
          "href": "https://api.spotify.com/v1/albums/7xl50xr9NDkd3i2kBbzsNZ",
          "id": "7xl50xr9NDkd3i2kBbzsNZ",
          "images": [
            {
              "height": 640,
              "url": "https://i.scdn.co/image/ab67616d0000b27309fd83d32aee93dceba78517",
              "width": 640
            },
            {
              "height": 300,
              "url": "https://i.scdn.co/image/ab67616d00001e0209fd83d32aee93dceba78517",
              "width": 300
            },
            {
              "height": 64,
              "url": "https://i.scdn.co/image/ab67616d0000485109fd83d32aee93dceba78517",
              "width": 64
            }
          ],
          "name": "Stadium Arcadium",
          "release_date": "2006-05-09",
          "release_date_precision": "day",
          "total_tracks": 29,
          "type": "album",
          "uri": "spotify:album:7xl50xr9NDkd3i2kBbzsNZ"
        },
        "artists": [
          {
            "external_urls": {
              "spotify": "https://open.spotify.com/artist/0L8ExT028jH3ddEcZwqJJ5"
            },
            "href": "https://api.spotify.com/v1/artists/0L8ExT028jH3ddEcZwqJJ5",
            "id": "0L8ExT028jH3ddEcZwqJJ5",
            "name": "Red Hot Chili Peppers",
            "type": "artist",
            "uri": "spotify:artist:0L8ExT028jH3ddEcZwqJJ5"
          }
        ],
        "available_markets": [
          "AD",
          "AE",
          "AG",
          "AL",
          "AM",
          "AO",
          "AR",
          "AT",
          "AU",
          "AZ",
          "BA",
          "BB",
          "BD",
          "BE",
          "BF",
          "BG",
          "BH",
          "BI",
          "BJ",
          "BN",
          "BO",
          "BR",
          "BS",
          "BT",
          "BW",
          "BY",
          "BZ",
          "CA",
          "CD",
          "CG",
          "CH",
          "CI",
          "CL",
          "CM",
          "CO",
          "CR",
          "CV",
          "CW",
          "CY",
          "CZ",
          "DE",
          "DJ",
          "DK",
          "DM",
          "DO",
          "DZ",
          "EC",
          "EE",
          "EG",
          "ES",
          "FI",
          "FJ",
          "FM",
          "FR",
          "GA",
          "GB",
          "GD",
          "GE",
          "GH",
          "GM",
          "GN",
          "GQ",
          "GR",
          "GT",
          "GW",
          "GY",
          "HK",
          "HN",
          "HR",
          "HT",
          "HU",
          "ID",
          "IE",
          "IL",
          "IN",
          "IQ",
          "IS",
          "IT",
          "JM",
          "JO",
          "JP",
          "KE",
          "KG",
          "KH",
          "KI",
          "KM",
          "KN",
          "KR",
          "KW",
          "KZ",
          "LA",
          "LB",
          "LC",
          "LI",
          "LK",
          "LR",
          "LS",
          "LT",
          "LU",
          "LV",
          "LY",
          "MA",
          "MC",
          "MD",
          "ME",
          "MG",
          "MH",
          "MK",
          "ML",
          "MN",
          "MO",
          "MR",
          "MT",
          "MU",
          "MV",
          "MW",
          "MX",
          "MY",
          "MZ",
          "NA",
          "NE",
          "NG",
          "NI",
          "NL",
          "NO",
          "NP",
          "NR",
          "NZ",
          "OM",
          "PA",
          "PE",
          "PG",
          "PH",
          "PK",
          "PL",
          "PS",
          "PT",
          "PW",
          "PY",
          "QA",
          "RO",
          "RS",
          "RU",
          "RW",
          "SA",
          "SB",
          "SC",
          "SE",
          "SG",
          "SI",
          "SK",
          "SL",
          "SM",
          "SN",
          "SR",
          "ST",
          "SV",
          "SZ",
          "TD",
          "TG",
          "TH",
          "TJ",
          "TL",
          "TN",
          "TO",
          "TR",
          "TT",
          "TV",
          "TW",
          "TZ",
          "UA",
          "UG",
          "US",
          "UY",
          "UZ",
          "VC",
          "VE",
          "VN",
          "VU",
          "WS",
          "XK",
          "ZA",
          "ZM",
          "ZW"
        ],
        "disc_number": 1,
        "duration_ms": 334666,
        "episode": false,
        "explicit": false,
        "external_ids": {
          "isrc": "USWB10601591"
        },
        "external_urls": {
          "spotify": "https://open.spotify.com/track/2aibwv5hGXSgw7Yru8IYTO"
        },
        "href": "https://api.spotify.com/v1/tracks/2aibwv5hGXSgw7Yru8IYTO",
        "id": "2aibwv5hGXSgw7Yru8IYTO",
        "is_local": false,
        "name": "Snow (Hey Oh)",
        "popularity": 82,
        "preview_url": "https://p.scdn.co/mp3-preview/bc8d37532bace773a946ed1ab59f4181e632d93a?cid=774b29d4f13844c495f206cafdad9c86",
        "track": true,
        "track_number": 2,
        "type": "track",
        "uri": "spotify:track:2aibwv5hGXSgw7Yru8IYTO"
      },
      "video_thumbnail": {
        "url": null
      }
    },
    {
      "added_at": "2018-10-06T13:44:12Z",
      "added_by": {
        "external_urls": {
          "spotify": "https://open.spotify.com/user/12174432317"
        },
        "href": "https://api.spotify.com/v1/users/12174432317",
        "id": "12174432317",
        "type": "user",
        "uri": "spotify:user:12174432317"
      },
      "is_local": false,
      "primary_color": null,
      "track": {
        "album": {
          "album_type": "album",
          "artists": [
            {
              "external_urls": {
                "spotify": "https://open.spotify.com/artist/0L8ExT028jH3ddEcZwqJJ5"
              },
              "href": "https://api.spotify.com/v1/artists/0L8ExT028jH3ddEcZwqJJ5",
              "id": "0L8ExT028jH3ddEcZwqJJ5",
              "name": "Red Hot Chili Peppers",
              "type": "artist",
              "uri": "spotify:artist:0L8ExT028jH3ddEcZwqJJ5"
            }
          ],
          "available_markets": [
            "AD",
            "AE",
            "AG",
            "AL",
            "AM",
            "AO",
            "AR",
            "AT",
            "AU",
            "AZ",
            "BA",
            "BB",
            "BD",
            "BE",
            "BF",
            "BG",
            "BH",
            "BI",
            "BJ",
            "BN",
            "BO",
            "BR",
            "BS",
            "BW",
            "BY",
            "BZ",
            "CA",
            "CD",
            "CG",
            "CH",
            "CI",
            "CL",
            "CM",
            "CO",
            "CR",
            "CV",
            "CW",
            "CY",
            "CZ",
            "DE",
            "DJ",
            "DK",
            "DM",
            "DO",
            "DZ",
            "EC",
            "EE",
            "EG",
            "ES",
            "FI",
            "FJ",
            "FM",
            "FR",
            "GA",
            "GB",
            "GD",
            "GH",
            "GM",
            "GN",
            "GQ",
            "GR",
            "GT",
            "GW",
            "HK",
            "HN",
            "HR",
            "HT",
            "HU",
            "ID",
            "IE",
            "IL",
            "IN",
            "IQ",
            "IS",
            "IT",
            "JM",
            "JO",
            "JP",
            "KE",
            "KG",
            "KH",
            "KM",
            "KN",
            "KR",
            "KW",
            "KZ",
            "LA",
            "LB",
            "LC",
            "LI",
            "LK",
            "LR",
            "LS",
            "LT",
            "LU",
            "LV",
            "LY",
            "MA",
            "MC",
            "MD",
            "ME",
            "MG",
            "MK",
            "ML",
            "MN",
            "MO",
            "MR",
            "MT",
            "MU",
            "MW",
            "MX",
            "MY",
            "MZ",
            "NA",
            "NE",
            "NG",
            "NI",
            "NL",
            "NO",
            "NP",
            "NZ",
            "OM",
            "PA",
            "PE",
            "PG",
            "PH",
            "PK",
            "PL",
            "PS",
            "PT",
            "PY",
            "QA",
            "RO",
            "RS",
            "RU",
            "RW",
            "SA",
            "SC",
            "SE",
            "SG",
            "SI",
            "SK",
            "SL",
            "SM",
            "SN",
            "ST",
            "SV",
            "SZ",
            "TD",
            "TG",
            "TH",
            "TJ",
            "TL",
            "TN",
            "TR",
            "TT",
            "TW",
            "TZ",
            "UA",
            "UG",
            "US",
            "UY",
            "UZ",
            "VC",
            "VE",
            "VN",
            "XK",
            "ZA",
            "ZM",
            "ZW"
          ],
          "external_urls": {
            "spotify": "https://open.spotify.com/album/1jWKVgnHX8nwR551hQNx5K"
          },
          "href": "https://api.spotify.com/v1/albums/1jWKVgnHX8nwR551hQNx5K",
          "id": "1jWKVgnHX8nwR551hQNx5K",
          "images": [
            {
              "height": 640,
              "url": "https://i.scdn.co/image/ab67616d0000b273fdbcee40748537ff80a7af70",
              "width": 640
            },
            {
              "height": 300,
              "url": "https://i.scdn.co/image/ab67616d00001e02fdbcee40748537ff80a7af70",
              "width": 300
            },
            {
              "height": 64,
              "url": "https://i.scdn.co/image/ab67616d00004851fdbcee40748537ff80a7af70",
              "width": 64
            }
          ],
          "name": "By the Way",
          "release_date": "2002-07-09",
          "release_date_precision": "day",
          "total_tracks": 16,
          "type": "album",
          "uri": "spotify:album:1jWKVgnHX8nwR551hQNx5K"
        },
        "artists": [
          {
            "external_urls": {
              "spotify": "https://open.spotify.com/artist/0L8ExT028jH3ddEcZwqJJ5"
            },
            "href": "https://api.spotify.com/v1/artists/0L8ExT028jH3ddEcZwqJJ5",
            "id": "0L8ExT028jH3ddEcZwqJJ5",
            "name": "Red Hot Chili Peppers",
            "type": "artist",
            "uri": "spotify:artist:0L8ExT028jH3ddEcZwqJJ5"
          }
        ],
        "available_markets": [
          "AD",
          "AE",
          "AG",
          "AL",
          "AM",
          "AO",
          "AR",
          "AT",
          "AU",
          "AZ",
          "BA",
          "BB",
          "BD",
          "BE",
          "BF",
          "BG",
          "BH",
          "BI",
          "BJ",
          "BN",
          "BO",
          "BR",
          "BS",
          "BW",
          "BY",
          "BZ",
          "CA",
          "CD",
          "CG",
          "CH",
          "CI",
          "CL",
          "CM",
          "CO",
          "CR",
          "CV",
          "CW",
          "CY",
          "CZ",
          "DE",
          "DJ",
          "DK",
          "DM",
          "DO",
          "DZ",
          "EC",
          "EE",
          "EG",
          "ES",
          "FI",
          "FJ",
          "FM",
          "FR",
          "GA",
          "GB",
          "GD",
          "GH",
          "GM",
          "GN",
          "GQ",
          "GR",
          "GT",
          "GW",
          "HK",
          "HN",
          "HR",
          "HT",
          "HU",
          "ID",
          "IE",
          "IL",
          "IN",
          "IQ",
          "IS",
          "IT",
          "JM",
          "JO",
          "JP",
          "KE",
          "KG",
          "KH",
          "KM",
          "KN",
          "KR",
          "KW",
          "KZ",
          "LA",
          "LB",
          "LC",
          "LI",
          "LK",
          "LR",
          "LS",
          "LT",
          "LU",
          "LV",
          "LY",
          "MA",
          "MC",
          "MD",
          "ME",
          "MG",
          "MK",
          "ML",
          "MN",
          "MO",
          "MR",
          "MT",
          "MU",
          "MW",
          "MX",
          "MY",
          "MZ",
          "NA",
          "NE",
          "NG",
          "NI",
          "NL",
          "NO",
          "NP",
          "NZ",
          "OM",
          "PA",
          "PE",
          "PG",
          "PH",
          "PK",
          "PL",
          "PS",
          "PT",
          "PY",
          "QA",
          "RO",
          "RS",
          "RU",
          "RW",
          "SA",
          "SC",
          "SE",
          "SG",
          "SI",
          "SK",
          "SL",
          "SM",
          "SN",
          "ST",
          "SV",
          "SZ",
          "TD",
          "TG",
          "TH",
          "TJ",
          "TL",
          "TN",
          "TR",
          "TT",
          "TW",
          "TZ",
          "UA",
          "UG",
          "US",
          "UY",
          "UZ",
          "VC",
          "VE",
          "VN",
          "XK",
          "ZA",
          "ZM",
          "ZW"
        ],
        "disc_number": 1,
        "duration_ms": 231933,
        "episode": false,
        "explicit": false,
        "external_ids": {
          "isrc": "USWB10201693"
        },
        "external_urls": {
          "spotify": "https://open.spotify.com/track/2UaJHs6wlASNl7q34j7hK1"
        },
        "href": "https://api.spotify.com/v1/tracks/2UaJHs6wlASNl7q34j7hK1",
        "id": "2UaJHs6wlASNl7q34j7hK1",
        "is_local": false,
        "name": "The Zephyr Song",
        "popularity": 55,
        "preview_url": "https://p.scdn.co/mp3-preview/a42f2adaf648c904a0fbc0acb6000b2f5e0b3e0e?cid=774b29d4f13844c495f206cafdad9c86",
        "track": true,
        "track_number": 6,
        "type": "track",
        "uri": "spotify:track:2UaJHs6wlASNl7q34j7hK1"
      },
      "video_thumbnail": {
        "url": null
      }
    },
    {
      "added_at": "2018-10-06T13:40:12Z",
      "added_by": {
        "external_urls": {
          "spotify": "https://open.spotify.com/user/12174432317"
        },
        "href": "https://api.spotify.com/v1/users/12174432317",
        "id": "12174432317",
        "type": "user",
        "uri": "spotify:user:12174432317"
      },
      "is_local": false,
      "primary_color": null,
      "track": {
        "album": {
          "album_type": "album",
          "artists": [
            {
              "external_urls": {
                "spotify": "https://open.spotify.com/artist/0L8ExT028jH3ddEcZwqJJ5"
              },
              "href": "https://api.spotify.com/v1/artists/0L8ExT028jH3ddEcZwqJJ5",
              "id": "0L8ExT028jH3ddEcZwqJJ5",
              "name": "Red Hot Chili Peppers",
              "type": "artist",
              "uri": "spotify:artist:0L8ExT028jH3ddEcZwqJJ5"
            }
          ],
          "available_markets": [
            "AD",
            "AE",
            "AG",
            "AL",
            "AM",
            "AO",
            "AR",
            "AT",
            "AU",
            "AZ",
            "BA",
            "BB",
            "BD",
            "BE",
            "BF",
            "BG",
            "BH",
            "BI",
            "BJ",
            "BN",
            "BO",
            "BR",
            "BS",
            "BT",
            "BW",
            "BY",
            "BZ",
            "CA",
            "CD",
            "CG",
            "CH",
            "CI",
            "CL",
            "CM",
            "CO",
            "CR",
            "CV",
            "CW",
            "CY",
            "CZ",
            "DE",
            "DJ",
            "DK",
            "DM",
            "DO",
            "DZ",
            "EC",
            "EE",
            "EG",
            "ES",
            "FI",
            "FJ",
            "FM",
            "FR",
            "GA",
            "GB",
            "GD",
            "GE",
            "GH",
            "GM",
            "GN",
            "GQ",
            "GR",
            "GT",
            "GW",
            "GY",
            "HK",
            "HN",
            "HR",
            "HT",
            "HU",
            "ID",
            "IE",
            "IL",
            "IN",
            "IQ",
            "IS",
            "IT",
            "JM",
            "JO",
            "JP",
            "KE",
            "KG",
            "KH",
            "KI",
            "KM",
            "KN",
            "KR",
            "KW",
            "KZ",
            "LA",
            "LB",
            "LC",
            "LI",
            "LK",
            "LR",
            "LS",
            "LT",
            "LU",
            "LV",
            "LY",
            "MA",
            "MC",
            "MD",
            "ME",
            "MG",
            "MH",
            "MK",
            "ML",
            "MN",
            "MO",
            "MR",
            "MT",
            "MU",
            "MV",
            "MW",
            "MX",
            "MY",
            "MZ",
            "NA",
            "NE",
            "NG",
            "NI",
            "NL",
            "NO",
            "NP",
            "NR",
            "NZ",
            "OM",
            "PA",
            "PE",
            "PG",
            "PH",
            "PK",
            "PL",
            "PS",
            "PT",
            "PW",
            "PY",
            "QA",
            "RO",
            "RS",
            "RU",
            "RW",
            "SA",
            "SB",
            "SC",
            "SE",
            "SG",
            "SI",
            "SK",
            "SL",
            "SM",
            "SN",
            "SR",
            "ST",
            "SV",
            "SZ",
            "TD",
            "TG",
            "TH",
            "TJ",
            "TL",
            "TN",
            "TO",
            "TR",
            "TT",
            "TV",
            "TW",
            "TZ",
            "UA",
            "UG",
            "US",
            "UY",
            "UZ",
            "VC",
            "VE",
            "VN",
            "VU",
            "WS",
            "XK",
            "ZA",
            "ZM",
            "ZW"
          ],
          "external_urls": {
            "spotify": "https://open.spotify.com/album/43otFXrY0bgaq5fB3GrZj6"
          },
          "href": "https://api.spotify.com/v1/albums/43otFXrY0bgaq5fB3GrZj6",
          "id": "43otFXrY0bgaq5fB3GrZj6",
          "images": [
            {
              "height": 640,
              "url": "https://i.scdn.co/image/ab67616d0000b27358406b3f1ac3ceaff7a64fef",
              "width": 640
            },
            {
              "height": 300,
              "url": "https://i.scdn.co/image/ab67616d00001e0258406b3f1ac3ceaff7a64fef",
              "width": 300
            },
            {
              "height": 64,
              "url": "https://i.scdn.co/image/ab67616d0000485158406b3f1ac3ceaff7a64fef",
              "width": 64
            }
          ],
          "name": "The Getaway",
          "release_date": "2016-06-17",
          "release_date_precision": "day",
          "total_tracks": 13,
          "type": "album",
          "uri": "spotify:album:43otFXrY0bgaq5fB3GrZj6"
        },
        "artists": [
          {
            "external_urls": {
              "spotify": "https://open.spotify.com/artist/0L8ExT028jH3ddEcZwqJJ5"
            },
            "href": "https://api.spotify.com/v1/artists/0L8ExT028jH3ddEcZwqJJ5",
            "id": "0L8ExT028jH3ddEcZwqJJ5",
            "name": "Red Hot Chili Peppers",
            "type": "artist",
            "uri": "spotify:artist:0L8ExT028jH3ddEcZwqJJ5"
          }
        ],
        "available_markets": [
          "AD",
          "AE",
          "AG",
          "AL",
          "AM",
          "AO",
          "AR",
          "AT",
          "AU",
          "AZ",
          "BA",
          "BB",
          "BD",
          "BE",
          "BF",
          "BG",
          "BH",
          "BI",
          "BJ",
          "BN",
          "BO",
          "BR",
          "BS",
          "BT",
          "BW",
          "BY",
          "BZ",
          "CA",
          "CD",
          "CG",
          "CH",
          "CI",
          "CL",
          "CM",
          "CO",
          "CR",
          "CV",
          "CW",
          "CY",
          "CZ",
          "DE",
          "DJ",
          "DK",
          "DM",
          "DO",
          "DZ",
          "EC",
          "EE",
          "EG",
          "ES",
          "FI",
          "FJ",
          "FM",
          "FR",
          "GA",
          "GB",
          "GD",
          "GE",
          "GH",
          "GM",
          "GN",
          "GQ",
          "GR",
          "GT",
          "GW",
          "GY",
          "HK",
          "HN",
          "HR",
          "HT",
          "HU",
          "ID",
          "IE",
          "IL",
          "IN",
          "IQ",
          "IS",
          "IT",
          "JM",
          "JO",
          "JP",
          "KE",
          "KG",
          "KH",
          "KI",
          "KM",
          "KN",
          "KR",
          "KW",
          "KZ",
          "LA",
          "LB",
          "LC",
          "LI",
          "LK",
          "LR",
          "LS",
          "LT",
          "LU",
          "LV",
          "LY",
          "MA",
          "MC",
          "MD",
          "ME",
          "MG",
          "MH",
          "MK",
          "ML",
          "MN",
          "MO",
          "MR",
          "MT",
          "MU",
          "MV",
          "MW",
          "MX",
          "MY",
          "MZ",
          "NA",
          "NE",
          "NG",
          "NI",
          "NL",
          "NO",
          "NP",
          "NR",
          "NZ",
          "OM",
          "PA",
          "PE",
          "PG",
          "PH",
          "PK",
          "PL",
          "PS",
          "PT",
          "PW",
          "PY",
          "QA",
          "RO",
          "RS",
          "RU",
          "RW",
          "SA",
          "SB",
          "SC",
          "SE",
          "SG",
          "SI",
          "SK",
          "SL",
          "SM",
          "SN",
          "SR",
          "ST",
          "SV",
          "SZ",
          "TD",
          "TG",
          "TH",
          "TJ",
          "TL",
          "TN",
          "TO",
          "TR",
          "TT",
          "TV",
          "TW",
          "TZ",
          "UA",
          "UG",
          "US",
          "UY",
          "UZ",
          "VC",
          "VE",
          "VN",
          "VU",
          "WS",
          "XK",
          "ZA",
          "ZM",
          "ZW"
        ],
        "disc_number": 1,
        "duration_ms": 302000,
        "episode": false,
        "explicit": false,
        "external_ids": {
          "isrc": "USWB11600478"
        },
        "external_urls": {
          "spotify": "https://open.spotify.com/track/2oaK4JLVnmRGIO9ytBE1bt"
        },
        "href": "https://api.spotify.com/v1/tracks/2oaK4JLVnmRGIO9ytBE1bt",
        "id": "2oaK4JLVnmRGIO9ytBE1bt",
        "is_local": false,
        "name": "Dark Necessities",
        "popularity": 77,
        "preview_url": "https://p.scdn.co/mp3-preview/603321bf69cb0fd27c44ae875ff73c6dfc856311?cid=774b29d4f13844c495f206cafdad9c86",
        "track": true,
        "track_number": 2,
        "type": "track",
        "uri": "spotify:track:2oaK4JLVnmRGIO9ytBE1bt"
      },
      "video_thumbnail": {
        "url": null
      }
    }
  ],
  "limit": 3,
  "next": "https://api.spotify.com/v1/playlists/0FzPhBWC2VvP9jl8GnJTEY/tracks?offset=3&limit=3&locale=en-US,en;q=0.9,la;q=0.8",
  "offset": 0,
  "previous": null,
  "total": 45
}
